%YAML 1.1
%TAG !u! tag:unity3d.com,2011:
--- !u!114 &11400000
MonoBehaviour:
  m_ObjectHideFlags: 0
  m_CorrespondingSourceObject: {fileID: 0}
  m_PrefabInstance: {fileID: 0}
  m_PrefabAsset: {fileID: 0}
  m_GameObject: {fileID: 0}
  m_Enabled: 1
  m_EditorHideFlags: 0
  m_Script: {fileID: 11500000, guid: 74a6343cea5f27b4eaedf7ec17cfb285, type: 3}
  m_Name: 0BlueRoom01
  m_EditorClassIdentifier: 
  sceneId: 3
  isFirstTime: 1
  firstFragments:
  - {fileID: 11400000, guid: b1aae57fa507c0841b71e2bda20a16e3, type: 2}
  - {fileID: 11400000, guid: ca42855d9aac4e74e90e4d021099215c, type: 2}
  secondfragments: []
