%YAML 1.1
%TAG !u! tag:unity3d.com,2011:
--- !u!114 &11400000
MonoBehaviour:
  m_ObjectHideFlags: 0
  m_CorrespondingSourceObject: {fileID: 0}
  m_PrefabInstance: {fileID: 0}
  m_PrefabAsset: {fileID: 0}
  m_GameObject: {fileID: 0}
  m_Enabled: 1
  m_EditorHideFlags: 0
  m_Script: {fileID: 11500000, guid: 21402e4f18096df45adfad09edc1c13e, type: 3}
  m_Name: TestFragment
  m_EditorClassIdentifier: 
  passage: GameJam Topia, %corre!% &salta!% pruebas... %ja!&
  options:
  - {fileID: 11400000, guid: 8321f0f66bf2b3243a5494ad464d7e04, type: 2}
  - {fileID: 11400000, guid: 410756f28cb110146957a944036bde53, type: 2}
  failOption: {fileID: 11400000, guid: 81600f81c0f2d41419cda8e5d415e5a4, type: 2}
